<?xml version="1.0" encoding="utf-8"?>
<!-- Generator: Adobe Illustrator 16.0.3, SVG Export Plug-In . SVG Version: 6.00 Build 0)  -->
<!DOCTYPE svg PUBLIC "-//W3C//DTD SVG 1.1//EN" "http://www.w3.org/Graphics/SVG/1.1/DTD/svg11.dtd">
<svg version="1.1" id="Capa_1" xmlns="http://www.w3.org/2000/svg" xmlns:xlink="http://www.w3.org/1999/xlink" x="0px" y="0px"
	 width="150px" height="150px" viewBox="0 0 150 150" enable-background="new 0 0 150 150" xml:space="preserve">
<image overflow="visible" width="334" height="501" xlink:href="80155832.jpg"  transform="matrix(0.3593 0 0 0.3992 15.666 -71.1665)">
</image>
<title>banner</title>
<g id="Capa_2">
	<g id="Capa_1-2">
		<path d="M20.032,53.256c-0.669,0-1.211,0.542-1.211,1.212c0,0.001,0,0.002,0,0.003l0.06,20.191
			c0.002,0.667,0.544,1.207,1.211,1.207h109.911c0.669,0,1.211-0.542,1.211-1.211c0-0.001,0-0.002,0-0.003l-0.059-20.191
			c-0.003-0.668-0.545-1.208-1.213-1.208H20.032z"/>
	</g>
</g>
</svg>
