<?xml version="1.0" encoding="utf-8"?>
<!-- Generator: Adobe Illustrator 22.1.0, SVG Export Plug-In . SVG Version: 6.00 Build 0)  -->
<svg version="1.1" id="Layer_1" xmlns="http://www.w3.org/2000/svg" xmlns:xlink="http://www.w3.org/1999/xlink" x="0px" y="0px"
	 viewBox="0 0 28.8 28.8" style="enable-background:new 0 0 28.8 28.8;" xml:space="preserve">
<style type="text/css">
	.st0{clip-path:url(#SVGID_2_);}
	.st1{fill:#1A1A1A;}
</style>
<title>logo-facebook</title>
<g>
	<defs>
		<rect id="SVGID_1_" x="-1665.8" y="-54.3" width="1920" height="4253"/>
	</defs>
	<clipPath id="SVGID_2_">
		<use xlink:href="#SVGID_1_"  style="overflow:visible;"/>
	</clipPath>
	<g class="st0">
		<path class="st1" d="M17.4,8.7V6.4c-0.1-0.7,0.4-1.3,1-1.4c0.1,0,0.1,0,0.2,0h3.2V0.2h-4.4c-4.9,0-6,3.6-6,6v2.5H8.5v5.7h2.9v14.3
			h5.7V14.4h4.2l0.2-2.3l0.3-3.5H17.4z"/>
	</g>
</g>
</svg>
