<?xml version="1.0" encoding="utf-8"?>
<!-- Generator: Adobe Illustrator 16.0.3, SVG Export Plug-In . SVG Version: 6.00 Build 0)  -->
<!DOCTYPE svg PUBLIC "-//W3C//DTD SVG 1.1//EN" "http://www.w3.org/Graphics/SVG/1.1/DTD/svg11.dtd">
<svg version="1.1" id="Capa_1" xmlns="http://www.w3.org/2000/svg" xmlns:xlink="http://www.w3.org/1999/xlink" x="0px" y="0px"
	 width="30px" height="30px" viewBox="0 0 30 30" enable-background="new 0 0 30 30" xml:space="preserve">
<path fill-rule="evenodd" clip-rule="evenodd" fill="#FF5C1A" d="M15.377,25.551c-1.803,0-3.576-0.479-5.129-1.385
	c-0.167-0.099-0.355-0.148-0.544-0.148c-0.097,0-0.191,0.013-0.286,0.038l-3.374,0.926l1.176-2.59
	c0.159-0.351,0.118-0.762-0.107-1.075c-1.258-1.743-1.923-3.802-1.923-5.952c0-5.616,4.57-10.188,10.188-10.188
	s10.187,4.572,10.187,10.188C25.563,20.981,20.994,25.551,15.377,25.551 M15.377,3.022c-6.806,0-12.342,5.537-12.342,12.342
	c0,2.394,0.679,4.693,1.971,6.689l-1.875,4.13c-0.173,0.381-0.11,0.826,0.161,1.145c0.208,0.244,0.509,0.379,0.82,0.379
	c0.096,0,0.19-0.013,0.286-0.038l5.165-1.417c1.783,0.953,3.783,1.455,5.813,1.455c6.805,0,12.343-5.536,12.343-12.343
	C27.72,8.56,22.182,3.022,15.377,3.022"/>
<path fill-rule="evenodd" clip-rule="evenodd" fill="#FF5C1A" d="M20.121,17.213c-0.518-0.31-1.189-0.654-1.798-0.406
	c-0.467,0.192-0.766,0.924-1.067,1.297c-0.156,0.191-0.342,0.221-0.58,0.125c-1.754-0.698-3.097-1.869-4.064-3.481
	c-0.163-0.251-0.135-0.448,0.063-0.681c0.293-0.344,0.66-0.735,0.738-1.199c0.079-0.465-0.138-1.006-0.33-1.419
	c-0.244-0.528-0.518-1.28-1.047-1.579c-0.486-0.274-1.126-0.121-1.561,0.232c-0.746,0.608-1.106,1.562-1.096,2.507
	c0.003,0.269,0.036,0.537,0.098,0.795c0.151,0.624,0.439,1.206,0.765,1.76c0.244,0.418,0.51,0.822,0.797,1.212
	c0.937,1.275,2.104,2.381,3.456,3.208c0.674,0.414,1.402,0.776,2.154,1.024c0.846,0.28,1.598,0.57,2.509,0.397
	c0.956-0.182,1.896-0.772,2.275-1.692c0.112-0.272,0.169-0.576,0.105-0.863C21.408,17.854,20.604,17.501,20.121,17.213"/>
</svg>
